<define-tag pagetitle>DSA-4350-1 policykit-1</define-tag>
<define-tag report_date>2018-12-06</define-tag>
<define-tag secrefs>CVE-2018-19788 Bug#915332</define-tag>
<define-tag packages>policykit-1</define-tag>
<define-tag isvulnerable>yes</define-tag>
<define-tag fixed>yes</define-tag>
<define-tag fixed-section>no</define-tag>

#use wml::debian::security



</dl>
