<define-tag pagetitle>DSA-4725-1 evolution-data-server</define-tag>
<define-tag report_date>2020-7-15</define-tag>
<define-tag secrefs>CVE-2020-14928</define-tag>
<define-tag packages>evolution-data-server</define-tag>
<define-tag isvulnerable>yes</define-tag>
<define-tag fixed>yes</define-tag>
<define-tag fixed-section>no</define-tag>

#use wml::debian::security



</dl>
