<define-tag pagetitle>DSA-4751-1 squid</define-tag>
<define-tag report_date>2020-8-27</define-tag>
<define-tag secrefs>CVE-2020-15810 CVE-2020-15811 CVE-2020-24606 Bug#968932 Bug#968933 Bug#968934</define-tag>
<define-tag packages>squid</define-tag>
<define-tag isvulnerable>yes</define-tag>
<define-tag fixed>yes</define-tag>
<define-tag fixed-section>no</define-tag>

#use wml::debian::security



</dl>
