<define-tag pagetitle>DLA-2732-1 openexr</define-tag>
<define-tag report_date>2021-08-04</define-tag>
<define-tag secrefs>CVE-2021-3605 CVE-2021-20299 CVE-2021-20300 CVE-2021-20302 CVE-2021-20303 Bug#990899</define-tag>
<define-tag packages>openexr</define-tag>
<define-tag isvulnerable>yes</define-tag>
<define-tag fixed>yes</define-tag>
<define-tag fixed-section>no</define-tag>

#use wml::debian::security

