<define-tag pagetitle>DLA-2688-1 jetty9</define-tag>
<define-tag report_date>2021-06-17</define-tag>
<define-tag secrefs>CVE-2021-28169</define-tag>
<define-tag packages>jetty9</define-tag>
<define-tag isvulnerable>yes</define-tag>
<define-tag fixed>yes</define-tag>
<define-tag fixed-section>no</define-tag>

#use wml::debian::security

