<define-tag pagetitle>DLA-2738-1 c-ares</define-tag>
<define-tag report_date>2021-8-10</define-tag>
<define-tag secrefs>CVE-2021-3672</define-tag>
<define-tag packages>c-ares</define-tag>
<define-tag isvulnerable>yes</define-tag>
<define-tag fixed>yes</define-tag>
<define-tag fixed-section>no</define-tag>

#use wml::debian::security

