<define-tag pagetitle>DLA-2606-1 lxml</define-tag>
<define-tag report_date>2021-3-24</define-tag>
<define-tag secrefs>CVE-2021-28957</define-tag>
<define-tag packages>lxml</define-tag>
<define-tag isvulnerable>yes</define-tag>
<define-tag fixed>yes</define-tag>
<define-tag fixed-section>no</define-tag>

#use wml::debian::security

