<define-tag pagetitle>DLA-829-1 gst-plugins-ugly0.10</define-tag>
<define-tag report_date>2017-2-18</define-tag>
<define-tag secrefs>CVE-2017-5846 CVE-2017-5847</define-tag>
<define-tag packages>gst-plugins-ugly0.10</define-tag>
<define-tag isvulnerable>yes</define-tag>
<define-tag fixed>yes</define-tag>
<define-tag fixed-section>no</define-tag>

#use wml::debian::security

