<define-tag pagetitle>DLA-1083-1 openexr</define-tag>
<define-tag report_date>2017-8-31</define-tag>
<define-tag secrefs>CVE-2017-9110 CVE-2017-9112 CVE-2017-9116 Bug#864078</define-tag>
<define-tag packages>openexr</define-tag>
<define-tag isvulnerable>yes</define-tag>
<define-tag fixed>yes</define-tag>
<define-tag fixed-section>no</define-tag>

#use wml::debian::security

