<define-tag pagetitle>DLA-836-1 munin</define-tag>
<define-tag report_date>2017-2-25</define-tag>
<define-tag secrefs>CVE-2017-6188 Bug#855705</define-tag>
<define-tag packages>munin</define-tag>
<define-tag isvulnerable>yes</define-tag>
<define-tag fixed>yes</define-tag>
<define-tag fixed-section>no</define-tag>

#use wml::debian::security

