<define-tag pagetitle>DLA-1145-1 zoneminder</define-tag>
<define-tag report_date>2017-10-26</define-tag>
<define-tag secrefs>CVE-2017-5595</define-tag>
<define-tag packages>zoneminder</define-tag>
<define-tag isvulnerable>yes</define-tag>
<define-tag fixed>yes</define-tag>
<define-tag fixed-section>no</define-tag>

#use wml::debian::security

