<define-tag pagetitle>DLA-2196-2 pound</define-tag>
<define-tag report_date>2020-5-3</define-tag>
<define-tag secrefs>CVE-2016-10711</define-tag>
<define-tag packages>pound</define-tag>
<define-tag isvulnerable>yes</define-tag>
<define-tag fixed>yes</define-tag>
<define-tag fixed-section>no</define-tag>

#use wml::debian::security

