<define-tag pagetitle>DLA-2427-1 spice</define-tag>
<define-tag report_date>2020-11-01</define-tag>
<define-tag secrefs>CVE-2020-14355 Bug#971750</define-tag>
<define-tag packages>spice</define-tag>
<define-tag isvulnerable>yes</define-tag>
<define-tag fixed>yes</define-tag>
<define-tag fixed-section>no</define-tag>

#use wml::debian::security

