<define-tag pagetitle>DLA-2315-1 gupnp</define-tag>
<define-tag report_date>2020-08-06</define-tag>
<define-tag secrefs>CVE-2020-12695</define-tag>
<define-tag packages>gupnp</define-tag>
<define-tag isvulnerable>yes</define-tag>
<define-tag fixed>yes</define-tag>
<define-tag fixed-section>no</define-tag>

#use wml::debian::security

