<define-tag pagetitle>DLA-2484-1 python-certbot</define-tag>
<define-tag report_date>2020-12-09</define-tag>
<define-tag secrefs>Bug#969126</define-tag>
<define-tag packages>python-certbot</define-tag>
<define-tag isvulnerable>yes</define-tag>
<define-tag fixed>yes</define-tag>
<define-tag fixed-section>no</define-tag>

#use wml::debian::security

