<define-tag pagetitle>DLA-1242-1 xmltooling</define-tag>
<define-tag report_date>2018-1-14</define-tag>
<define-tag secrefs>CVE-2018-0486</define-tag>
<define-tag packages>xmltooling</define-tag>
<define-tag isvulnerable>yes</define-tag>
<define-tag fixed>yes</define-tag>
<define-tag fixed-section>no</define-tag>

#use wml::debian::security

