<define-tag pagetitle>DLA-1740-1 libav</define-tag>
<define-tag report_date>2019-3-30</define-tag>
<define-tag secrefs>CVE-2015-1872 CVE-2017-14058 CVE-2017-1000460 CVE-2018-639 CVE-2018-1999012</define-tag>
<define-tag packages>libav</define-tag>
<define-tag isvulnerable>yes</define-tag>
<define-tag fixed>yes</define-tag>
<define-tag fixed-section>no</define-tag>

#use wml::debian::security

