<define-tag pagetitle>DLA-1976-1 imapfilter</define-tag>
<define-tag report_date>2019-10-30</define-tag>
<define-tag secrefs>CVE-2016-10937 Bug#939702</define-tag>
<define-tag packages>imapfilter</define-tag>
<define-tag isvulnerable>yes</define-tag>
<define-tag fixed>yes</define-tag>
<define-tag fixed-section>no</define-tag>

#use wml::debian::security

