<define-tag pagetitle>DLA-1690-1 liblivemedia</define-tag>
<define-tag report_date>2019-02-27</define-tag>
<define-tag secrefs>CVE-2019-6256 CVE-2019-7314 Bug#919529</define-tag>
<define-tag packages>liblivemedia</define-tag>
<define-tag isvulnerable>yes</define-tag>
<define-tag fixed>yes</define-tag>
<define-tag fixed-section>no</define-tag>

#use wml::debian::security

