<define-tag pagetitle>DLA-1701-1 openssl</define-tag>
<define-tag report_date>2019-3-1</define-tag>
<define-tag secrefs>CVE-2019-1559</define-tag>
<define-tag packages>openssl</define-tag>
<define-tag isvulnerable>yes</define-tag>
<define-tag fixed>yes</define-tag>
<define-tag fixed-section>no</define-tag>

#use wml::debian::security

