<define-tag pagetitle>DLA-750-1 game-music-emu</define-tag>
<define-tag report_date>2016-12-16</define-tag>
<define-tag secrefs>CVE-2016-9957 CVE-2016-9958 CVE-2016-9959 CVE-2016-9960 CVE-2016-9961</define-tag>
<define-tag packages>game-music-emu</define-tag>
<define-tag isvulnerable>yes</define-tag>
<define-tag fixed>yes</define-tag>
<define-tag fixed-section>no</define-tag>

#use wml::debian::security

